id,name,model_id:id,group_id:id,perm_read,perm_write,perm_create,perm_unlink
access_employee_documents,employee.documents,model_employee_documents,,1,1,1,1
access_document_type,document.type,model_document_type,,1,1,1,1
